simulation/qsim/LogicalStep_Lab2.msim.vcd
$comment
	File created using the following command:
		vcd file LogicalStep_Lab2.msim.vcd -direction
$end
$date
	Sat Jun 20 20:53:49 2020
$end
$version
	ModelSim Version 10.5b
$end
$timescale
	1ps
$end

$scope module logicalstep_lab2_top_vhd_vec_tst $end
$var wire 1 ! leds [5] $end
$var wire 1 " leds [4] $end
$var wire 1 # leds [3] $end
$var wire 1 $ leds [2] $end
$var wire 1 % leds [1] $end
$var wire 1 & leds [0] $end
$var wire 1 ' pb [6] $end
$var wire 1 ( pb [5] $end
$var wire 1 ) pb [4] $end
$var wire 1 * pb [3] $end
$var wire 1 + pb [2] $end
$var wire 1 , pb [1] $end
$var wire 1 - pb [0] $end
$var wire 1 . sw [15] $end
$var wire 1 / sw [14] $end
$var wire 1 0 sw [13] $end
$var wire 1 1 sw [12] $end
$var wire 1 2 sw [11] $end
$var wire 1 3 sw [10] $end
$var wire 1 4 sw [9] $end
$var wire 1 5 sw [8] $end
$var wire 1 6 sw [7] $end
$var wire 1 7 sw [6] $end
$var wire 1 8 sw [5] $end
$var wire 1 9 sw [4] $end
$var wire 1 : sw [3] $end
$var wire 1 ; sw [2] $end
$var wire 1 < sw [1] $end
$var wire 1 = sw [0] $end

$scope module i1 $end
$var wire 1 > gnd $end
$var wire 1 ? vcc $end
$var wire 1 @ unknown $end
$var wire 1 A devoe $end
$var wire 1 B devclrn $end
$var wire 1 C devpor $end
$var wire 1 D ww_devoe $end
$var wire 1 E ww_devclrn $end
$var wire 1 F ww_devpor $end
$var wire 1 G ww_pb [6] $end
$var wire 1 H ww_pb [5] $end
$var wire 1 I ww_pb [4] $end
$var wire 1 J ww_pb [3] $end
$var wire 1 K ww_pb [2] $end
$var wire 1 L ww_pb [1] $end
$var wire 1 M ww_pb [0] $end
$var wire 1 N ww_sw [15] $end
$var wire 1 O ww_sw [14] $end
$var wire 1 P ww_sw [13] $end
$var wire 1 Q ww_sw [12] $end
$var wire 1 R ww_sw [11] $end
$var wire 1 S ww_sw [10] $end
$var wire 1 T ww_sw [9] $end
$var wire 1 U ww_sw [8] $end
$var wire 1 V ww_sw [7] $end
$var wire 1 W ww_sw [6] $end
$var wire 1 X ww_sw [5] $end
$var wire 1 Y ww_sw [4] $end
$var wire 1 Z ww_sw [3] $end
$var wire 1 [ ww_sw [2] $end
$var wire 1 \ ww_sw [1] $end
$var wire 1 ] ww_sw [0] $end
$var wire 1 ^ ww_leds [5] $end
$var wire 1 _ ww_leds [4] $end
$var wire 1 ` ww_leds [3] $end
$var wire 1 a ww_leds [2] $end
$var wire 1 b ww_leds [1] $end
$var wire 1 c ww_leds [0] $end
$var wire 1 d \leds[0]~output_o\ $end
$var wire 1 e \leds[1]~output_o\ $end
$var wire 1 f \leds[2]~output_o\ $end
$var wire 1 g \leds[3]~output_o\ $end
$var wire 1 h \leds[4]~output_o\ $end
$var wire 1 i \leds[5]~output_o\ $end
$var wire 1 j \sw[8]~input_o\ $end
$var wire 1 k \pb[3]~input_o\ $end
$var wire 1 l \sw[4]~input_o\ $end
$var wire 1 m \pb[2]~input_o\ $end
$var wire 1 n \sw[0]~input_o\ $end
$var wire 1 o \inst1|getB|Mux3~0_combout\ $end
$var wire 1 p \sw[12]~input_o\ $end
$var wire 1 q \inst1|getB|Mux3~1_combout\ $end
$var wire 1 r \pb[1]~input_o\ $end
$var wire 1 s \pb[0]~input_o\ $end
$var wire 1 t \inst1|getA|Mux3~0_combout\ $end
$var wire 1 u \inst1|getA|Mux3~1_combout\ $end
$var wire 1 v \pb[4]~input_o\ $end
$var wire 1 w \pb[5]~input_o\ $end
$var wire 1 x \inst1|getLogic|Mux3~9_combout\ $end
$var wire 1 y \pb[6]~input_o\ $end
$var wire 1 z \inst1|getLogic|Mux3~10_combout\ $end
$var wire 1 { \sw[5]~input_o\ $end
$var wire 1 | \sw[9]~input_o\ $end
$var wire 1 } \sw[1]~input_o\ $end
$var wire 1 ~ \inst1|getA|Mux2~0_combout\ $end
$var wire 1 !! \sw[13]~input_o\ $end
$var wire 1 "! \inst1|getA|Mux2~1_combout\ $end
$var wire 1 #! \inst1|getB|Mux2~0_combout\ $end
$var wire 1 $! \inst1|getB|Mux2~1_combout\ $end
$var wire 1 %! \inst1|getLogic|hex_out~0_combout\ $end
$var wire 1 &! \inst1|result[1]~0_combout\ $end
$var wire 1 '! \inst1|getLogic|Mux3~6_combout\ $end
$var wire 1 (! \inst1|result[1]~1_combout\ $end
$var wire 1 )! \inst1|getLogic|Mux3~8_combout\ $end
$var wire 1 *! \inst1|result[1]~2_combout\ $end
$var wire 1 +! \inst1|getLogic|Mux3~7_combout\ $end
$var wire 1 ,! \inst1|result[1]~3_combout\ $end
$var wire 1 -! \sw[10]~input_o\ $end
$var wire 1 .! \sw[6]~input_o\ $end
$var wire 1 /! \sw[2]~input_o\ $end
$var wire 1 0! \inst1|getA|Mux1~0_combout\ $end
$var wire 1 1! \sw[14]~input_o\ $end
$var wire 1 2! \inst1|getA|Mux1~1_combout\ $end
$var wire 1 3! \inst1|getB|Mux1~0_combout\ $end
$var wire 1 4! \inst1|getB|Mux1~1_combout\ $end
$var wire 1 5! \inst1|result[2]~4_combout\ $end
$var wire 1 6! \inst1|result[2]~5_combout\ $end
$var wire 1 7! \inst1|getAdd|adder1|carry_out_bit~0_combout\ $end
$var wire 1 8! \inst1|getAdd|adder2|bit_sum~combout\ $end
$var wire 1 9! \inst1|result[2]~6_combout\ $end
$var wire 1 :! \sw[7]~input_o\ $end
$var wire 1 ;! \sw[11]~input_o\ $end
$var wire 1 <! \sw[3]~input_o\ $end
$var wire 1 =! \inst1|getA|Mux0~0_combout\ $end
$var wire 1 >! \sw[15]~input_o\ $end
$var wire 1 ?! \inst1|getA|Mux0~1_combout\ $end
$var wire 1 @! \inst1|getB|Mux0~0_combout\ $end
$var wire 1 A! \inst1|getB|Mux0~1_combout\ $end
$var wire 1 B! \inst1|result[3]~7_combout\ $end
$var wire 1 C! \inst1|getAdd|adder2|carry_out_bit~0_combout\ $end
$var wire 1 D! \inst1|getLogic|hex_out~1_combout\ $end
$var wire 1 E! \inst1|result[3]~8_combout\ $end
$var wire 1 F! \inst1|result[4]~9_combout\ $end
$upscope $end
$upscope $end
$enddefinitions $end
#0
$dumpvars
0>
1?
x@
1A
1B
1C
1D
1E
1F
0d
1e
1f
1g
1h
0i
0j
0k
1l
0m
1n
1o
0p
1q
0r
0s
1t
1u
0v
0w
1x
0y
0z
1{
0|
1}
1~
0!!
1"!
1#!
1$!
0%!
1&!
0'!
0(!
0)!
0*!
0+!
1,!
0-!
1.!
1/!
10!
01!
12!
13!
14!
05!
06!
17!
18!
19!
1:!
0;!
1<!
1=!
0>!
1?!
1@!
1A!
1B!
1C!
0D!
1E!
1F!
0'
0(
0)
0*
0+
0,
0-
0.
0/
00
01
02
03
04
05
16
17
18
19
1:
1;
1<
1=
0!
1"
1#
1$
1%
0&
0G
0H
0I
0J
0K
0L
0M
0N
0O
0P
0Q
0R
0S
0T
0U
1V
1W
1X
1Y
1Z
1[
1\
1]
0^
1_
1`
1a
1b
0c
$end
#20000
15
1U
1j
#30000
0=
0]
0n
0o
0t
0u
0q
0x
0&!
0,!
0e
0b
0%
#50000
14
1T
1|
#60000
0<
0\
0}
0~
0#!
0$!
0"!
07!
08!
09!
0f
0a
0$
#80000
13
1S
1-!
#90000
0;
0[
0/!
00!
03!
04!
02!
0C!
0E!
0g
0`
0#
#105000
1*
1J
1k
1q
1#!
14!
0@!
0A!
18!
1$!
1z
1d
1%!
19!
0B!
1D!
0F!
1c
0h
1f
1E!
1&!
1&
0_
1a
1g
1,!
1$
0"
1`
1e
1#
1b
1%
#110000
12
1R
1;!
1@!
1A!
1B!
0D!
1F!
1h
0E!
1_
0g
1"
0`
0#
#120000
0:
0Z
0<!
0=!
0?!
0B!
1D!
0F!
0h
1E!
0_
1g
0"
1`
1#
#140000
11
1Q
1p
#150000
1+
09
1K
0Y
0l
1m
0$!
13!
0A!
1o
0D!
04!
0%!
0&!
08!
0E!
0g
09!
0,!
0`
0e
0f
0#
0b
0a
0%
0$
#170000
10
1P
1!!
1$!
1%!
1&!
1,!
1e
1b
1%
#180000
08
0X
0{
#200000
1/
1O
11!
14!
18!
19!
1f
1a
1$
#210000
07
0W
0.!
#230000
0*
1.
0J
1N
1>!
0k
0o
0#!
03!
0@!
1A!
1D!
04!
0$!
0q
0z
0%!
08!
1E!
1g
0d
09!
0&!
1`
0c
0f
0,!
0&
1#
0a
0e
0$
0b
0%
#240000
06
0V
0:!
0A!
0D!
0E!
0g
0`
0#
#250000
1,
1(
1L
1H
1w
1r
1u
1~
12!
1=!
1?!
18!
1"!
1x
1z
1d
1%!
19!
1B!
1D!
1c
1f
1E!
1&!
1&
1a
1g
1,!
1$
1`
1e
1#
1b
1%
#270000
05
0U
0j
0u
0x
0z
0d
0c
0&
#280000
1=
1]
1n
#300000
04
0T
0|
0~
0"!
0%!
0&!
0,!
0e
0b
0%
#310000
1<
1\
1}
#330000
03
0S
0-!
02!
08!
09!
0f
0a
0$
#340000
1;
1[
1/!
#355000
1*
1J
1k
1o
1#!
13!
1@!
1A!
14!
1$!
1q
1x
1z
1%!
18!
0B!
0D!
1F!
1h
1d
0E!
19!
1&!
1_
1c
1f
0g
1,!
1&
1"
1a
0`
1e
1$
0#
1b
1%
#360000
02
0R
0;!
0=!
0?!
1B!
1D!
0F!
0h
1E!
0_
1g
0"
1`
1#
#370000
1:
1Z
1<!
#390000
01
0Q
0p
0q
0x
0z
0d
0c
0&
#400000
0+
19
0K
1Y
1l
0m
0#!
03!
0@!
0o
0A!
04!
0$!
0%!
08!
0B!
0D!
0E!
09!
0&!
0f
0g
0,!
0a
0`
0e
0$
0#
0b
0%
#420000
00
0P
0!!
#430000
18
1X
1{
#450000
0/
0O
01!
#460000
17
1W
1.!
#480000
0*
0.
0J
0N
0>!
0k
1o
1#!
13!
1@!
1A!
14!
1$!
1q
1x
1z
1%!
18!
1B!
1D!
1d
1E!
19!
1&!
1c
1f
1g
1,!
1&
1a
1`
1e
1$
1#
1b
1%
#490000
16
1V
1:!
#500000
0,
0(
1-
1)
1'
1M
0L
1I
0H
1G
1y
0w
1v
0r
1s
1i
1"!
1?!
1t
10!
0&!
1'!
09!
1^
0f
15!
0,!
12!
1u
0D!
0%!
1(!
17!
1!
0a
0e
1*!
1C!
19!
0$
0b
1f
1,!
0%
1a
1e
1$
1b
1%
#520000
15
1U
1j
#530000
0=
0]
0n
0o
0q
#550000
14
1T
1|
#560000
0<
0\
0}
0#!
0$!
1%!
07!
08!
#580000
13
1S
1-!
#590000
0;
0[
0/!
03!
04!
18!
0C!
#605000
1*
1J
1k
1q
1#!
14!
0@!
0A!
08!
1C!
1$!
17!
18!
0%!
1D!
#610000
12
1R
1;!
1@!
1A!
0D!
#620000
0:
0Z
0<!
#640000
11
1Q
1p
#650000
1+
09
1K
0Y
0l
1m
0$!
13!
0A!
1o
0t
0u
1D!
04!
1%!
08!
07!
18!
0C!
#670000
10
1P
1!!
1$!
0%!
17!
08!
1C!
#680000
08
0X
0{
0"!
1%!
07!
18!
0C!
#700000
1/
1O
11!
14!
08!
1C!
#710000
07
0W
0.!
00!
02!
18!
0C!
#730000
0*
1.
0J
1N
1>!
0k
0o
0#!
03!
0@!
1A!
0D!
04!
0$!
0q
0x
0%!
0(!
05!
08!
09!
0*!
0z
0d
0f
0,!
0c
0a
0e
0&
0$
0b
0%
#740000
06
0V
0:!
0?!
0A!
0B!
0E!
0g
0`
0#
#750000
1,
1(
1L
1H
1w
1r
1t
1u
1~
10!
12!
1=!
1x
0'!
1)!
1+!
1B!
1E!
1,!
1?!
18!
1"!
0x
1z
1d
1e
1g
0z
1%!
0B!
1D!
1c
1b
1`
0d
0E!
0,!
1&
1%
1#
0c
0e
0g
0&
0b
0`
0%
0#
#770000
05
0U
0j
#780000
1=
1]
1n
#800000
04
0T
0|
#810000
1<
1\
1}
#830000
03
0S
0-!
#840000
1;
1[
1/!
#855000
1*
1J
1k
1o
1#!
13!
1@!
1A!
14!
1$!
1q
1x
0%!
17!
16!
08!
1C!
1B!
0D!
1E!
19!
18!
1,!
1z
1d
1e
1f
1g
1c
1b
1a
1`
1&
1%
1$
1#
#860000
02
0R
0;!
#870000
1:
1Z
1<!
#890000
01
0Q
0p
0q
0u
#900000
0+
19
0K
1Y
1l
0m
0#!
03!
0@!
0o
0A!
04!
0$!
1%!
07!
06!
08!
0B!
1D!
0E!
09!
18!
0C!
0,!
0e
0f
0g
0b
0a
0`
0%
0$
0#
#920000
00
0P
0!!
0"!
0%!
1,!
1e
1b
1%
#930000
18
1X
1{
#950000
0/
0O
01!
02!
16!
08!
19!
1f
1a
1$
#960000
17
1W
1.!
#980000
0*
0.
0J
0N
0>!
0k
1o
1#!
13!
1@!
0?!
1B!
0D!
1A!
14!
1$!
1q
0x
1%!
06!
18!
0B!
1D!
1E!
1g
0E!
09!
0,!
0z
1`
0d
0e
0f
0g
1#
0c
0b
0a
0`
0&
0%
0$
0#
#990000
16
1V
1:!
