simulation/qsim/LogicalStep_Lab2.msim.vcd
$comment
	File created using the following command:
		vcd file LogicalStep_Lab2.msim.vcd -direction
$end
$date
	Fri Jun 19 23:13:36 2020
$end
$version
	ModelSim Version 10.5b
$end
$timescale
	1ps
$end

$scope module logicalstep_lab2_top_vhd_vec_tst $end
$var wire 1 ! leds [5] $end
$var wire 1 " leds [4] $end
$var wire 1 # leds [3] $end
$var wire 1 $ leds [2] $end
$var wire 1 % leds [1] $end
$var wire 1 & leds [0] $end
$var wire 1 ' pb [6] $end
$var wire 1 ( pb [5] $end
$var wire 1 ) pb [4] $end
$var wire 1 * pb [3] $end
$var wire 1 + pb [2] $end
$var wire 1 , pb [1] $end
$var wire 1 - pb [0] $end
$var wire 1 . sw [15] $end
$var wire 1 / sw [14] $end
$var wire 1 0 sw [13] $end
$var wire 1 1 sw [12] $end
$var wire 1 2 sw [11] $end
$var wire 1 3 sw [10] $end
$var wire 1 4 sw [9] $end
$var wire 1 5 sw [8] $end
$var wire 1 6 sw [7] $end
$var wire 1 7 sw [6] $end
$var wire 1 8 sw [5] $end
$var wire 1 9 sw [4] $end
$var wire 1 : sw [3] $end
$var wire 1 ; sw [2] $end
$var wire 1 < sw [1] $end
$var wire 1 = sw [0] $end

$scope module i1 $end
$var wire 1 > gnd $end
$var wire 1 ? vcc $end
$var wire 1 @ unknown $end
$var wire 1 A devoe $end
$var wire 1 B devclrn $end
$var wire 1 C devpor $end
$var wire 1 D ww_devoe $end
$var wire 1 E ww_devclrn $end
$var wire 1 F ww_devpor $end
$var wire 1 G ww_pb [6] $end
$var wire 1 H ww_pb [5] $end
$var wire 1 I ww_pb [4] $end
$var wire 1 J ww_pb [3] $end
$var wire 1 K ww_pb [2] $end
$var wire 1 L ww_pb [1] $end
$var wire 1 M ww_pb [0] $end
$var wire 1 N ww_sw [15] $end
$var wire 1 O ww_sw [14] $end
$var wire 1 P ww_sw [13] $end
$var wire 1 Q ww_sw [12] $end
$var wire 1 R ww_sw [11] $end
$var wire 1 S ww_sw [10] $end
$var wire 1 T ww_sw [9] $end
$var wire 1 U ww_sw [8] $end
$var wire 1 V ww_sw [7] $end
$var wire 1 W ww_sw [6] $end
$var wire 1 X ww_sw [5] $end
$var wire 1 Y ww_sw [4] $end
$var wire 1 Z ww_sw [3] $end
$var wire 1 [ ww_sw [2] $end
$var wire 1 \ ww_sw [1] $end
$var wire 1 ] ww_sw [0] $end
$var wire 1 ^ ww_leds [5] $end
$var wire 1 _ ww_leds [4] $end
$var wire 1 ` ww_leds [3] $end
$var wire 1 a ww_leds [2] $end
$var wire 1 b ww_leds [1] $end
$var wire 1 c ww_leds [0] $end
$var wire 1 d \pb[2]~input_o\ $end
$var wire 1 e \pb[3]~input_o\ $end
$var wire 1 f \pb[4]~input_o\ $end
$var wire 1 g \pb[5]~input_o\ $end
$var wire 1 h \pb[6]~input_o\ $end
$var wire 1 i \leds[0]~output_o\ $end
$var wire 1 j \leds[1]~output_o\ $end
$var wire 1 k \leds[2]~output_o\ $end
$var wire 1 l \leds[3]~output_o\ $end
$var wire 1 m \leds[4]~output_o\ $end
$var wire 1 n \leds[5]~output_o\ $end
$var wire 1 o \sw[8]~input_o\ $end
$var wire 1 p \pb[1]~input_o\ $end
$var wire 1 q \sw[4]~input_o\ $end
$var wire 1 r \pb[0]~input_o\ $end
$var wire 1 s \sw[0]~input_o\ $end
$var wire 1 t \inst1|Mux3~0_combout\ $end
$var wire 1 u \sw[12]~input_o\ $end
$var wire 1 v \inst1|Mux3~1_combout\ $end
$var wire 1 w \sw[5]~input_o\ $end
$var wire 1 x \sw[9]~input_o\ $end
$var wire 1 y \sw[1]~input_o\ $end
$var wire 1 z \inst1|Mux2~0_combout\ $end
$var wire 1 { \sw[13]~input_o\ $end
$var wire 1 | \inst1|Mux2~1_combout\ $end
$var wire 1 } \sw[10]~input_o\ $end
$var wire 1 ~ \sw[6]~input_o\ $end
$var wire 1 !! \sw[2]~input_o\ $end
$var wire 1 "! \inst1|Mux1~0_combout\ $end
$var wire 1 #! \sw[14]~input_o\ $end
$var wire 1 $! \inst1|Mux1~1_combout\ $end
$var wire 1 %! \sw[7]~input_o\ $end
$var wire 1 &! \sw[11]~input_o\ $end
$var wire 1 '! \sw[3]~input_o\ $end
$var wire 1 (! \inst1|Mux0~0_combout\ $end
$var wire 1 )! \sw[15]~input_o\ $end
$var wire 1 *! \inst1|Mux0~1_combout\ $end
$upscope $end
$upscope $end
$enddefinitions $end
#0
$dumpvars
0>
1?
x@
1A
1B
1C
1D
1E
1F
xd
xe
xf
xg
xh
0i
1j
1k
1l
0m
0n
1o
0p
1q
0r
0s
0t
0u
0v
1w
0x
1y
1z
0{
1|
0}
1~
1!!
1"!
0#!
1$!
1%!
0&!
1'!
1(!
0)!
1*!
x'
x(
x)
x*
x+
0,
0-
0.
0/
00
01
02
03
04
15
16
17
18
19
1:
1;
1<
0=
0!
0"
1#
1$
1%
0&
xG
xH
xI
xJ
xK
0L
0M
0N
0O
0P
0Q
0R
0S
0T
1U
1V
1W
1X
1Y
1Z
1[
1\
0]
0^
0_
1`
1a
1b
0c
$end
#20000
14
1T
1x
#30000
0<
0\
0y
0z
0|
0j
0b
0%
#50000
13
1S
1}
#60000
0;
0[
0!!
0"!
0$!
0k
0a
0$
#80000
12
1R
1&!
#90000
0:
0Z
0'!
0(!
0*!
0l
0`
0#
#110000
11
1Q
1u
#120000
09
0Y
0q
#140000
10
1P
1{
#150000
08
0X
0w
#170000
1/
1O
1#!
#180000
07
0W
0~
#200000
1.
1N
1)!
#210000
06
0V
0%!
#240000
05
0U
0o
#250000
1,
1=
1L
1]
1s
1p
1z
1$!
1(!
1k
1*!
1|
1a
1j
1l
1$
1b
1`
1%
1#
#270000
04
0T
0x
0z
0|
0j
0b
0%
#280000
1<
1\
1y
#300000
03
0S
0}
0$!
0k
0a
0$
#310000
1;
1[
1!!
#330000
02
0R
0&!
0(!
0*!
0l
0`
0#
#340000
1:
1Z
1'!
#360000
01
0Q
0u
#370000
19
1Y
1q
#390000
00
0P
0{
#400000
18
1X
1w
#420000
0/
0O
0#!
#430000
17
1W
1~
#450000
0.
0N
0)!
#460000
16
1V
1%!
#490000
15
1U
1o
1v
1i
1c
1&
#500000
0,
0=
1-
1M
0L
0]
0s
0p
1r
1|
1*!
0v
1"!
1t
0i
1l
1j
1v
1$!
0c
1`
1b
1k
1i
0&
1%
1#
1a
1c
1&
1$
#520000
14
1T
1x
#530000
0<
0\
0y
#550000
13
1S
1}
#560000
0;
0[
0!!
#580000
12
1R
1&!
#590000
0:
0Z
0'!
#610000
11
1Q
1u
#620000
09
0Y
0q
0t
0v
0i
0c
0&
#640000
10
1P
1{
#650000
08
0X
0w
0|
0j
0b
0%
#670000
1/
1O
1#!
#680000
07
0W
0~
0"!
0$!
0k
0a
0$
#700000
1.
1N
1)!
#710000
06
0V
0%!
0*!
0l
0`
0#
#740000
05
0U
0o
#750000
1,
1=
1L
1]
1s
1p
1z
1"!
1$!
1(!
1t
1k
1v
1*!
1|
1a
1j
1l
1i
1$
1b
1`
1c
1&
1%
1#
#770000
04
0T
0x
#780000
1<
1\
1y
#800000
03
0S
0}
#810000
1;
1[
1!!
#830000
02
0R
0&!
#840000
1:
1Z
1'!
#860000
01
0Q
0u
0v
0i
0c
0&
#870000
19
1Y
1q
#890000
00
0P
0{
0|
0j
0b
0%
#900000
18
1X
1w
#920000
0/
0O
0#!
0$!
0k
0a
0$
#930000
17
1W
1~
#950000
0.
0N
0)!
0*!
0l
0`
0#
#960000
16
1V
1%!
#990000
15
1U
1o
